com\celestial\dbutils\LoggerExample.class
com\celestial\dbutils\UserHandler.class
com\celestial\dbutils\DBConnector.class
com\celestial\simplemavenwebapp\TimeAndDateHandler.class
com\celestial\loginmanager\ApplicationScopeHelper.class
com\celestial\dbutils\MainUnit.class
com\celestial\dbutils\User.class
com\celestial\dbutils\UserIterator.class
com\celestial\dbutils\PropertyLoader.class
